{
  "extends": ["tslint:latest", "tslint-react"],
  "rules": {
    // override tslint-react rules here
    "jsx-wrap-multiline": false,
    "quotes": ["error", "single"],
    "ordered-imports": false,
    "object-literal-sort-keys": false,
    "quotemark": [true, "single", "jsx-double"],
    "arrow-parens": false,
    "no-submodule-imports": false
  }
}